[
  {
    "option_id": 0,
    "work_id": 0,
    "name": "Удаление кутикул",
    "time": 600,
    "price": 1
  },
  {
    "option_id": 1,
    "work_id": 0,
    "name": "Наращивание",
    "time": 1800,
    "price": 7
  },
  {
    "option_id": 2,
    "work_id": 0,
    "name": "Гель-лак",
    "time": 3600,
    "price": 15
  },
  {
    "option_id": 3,
    "work_id": 1,
    "name": "Удаление кутикул",
    "time": 900,
    "price": 1.5
  },
  {
    "option_id": 4,
    "work_id": 1,
    "name": "Наращивание",
    "time": 1800,
    "price": 10
  },
  {
    "option_id": 5,
    "work_id": 1,
    "name": "Гель-лак",
    "time": 3600,
    "price": 17
  },

  {
    "option_id": 6,
    "work_id": 2,
    "name": "Перманентное окрашивание",
    "time": 900,
    "price": 7
  },
  {
    "option_id": 7,
    "work_id": 2,
    "name": "Стандартное окрашивание",
    "time": 900,
    "price": 5
  },
  {
    "option_id": 8,
    "work_id": 2,
    "name": "Выщипывание",
    "time": 900,
    "price": 4
  },

  {
    "option_id": 9,
    "work_id": 3,
    "name": "Окрашивание",
    "time": 900,
    "price": 5
  },
  {
    "option_id": 10,
    "work_id": 3,
    "name": "Наращивание",
    "time": 2700,
    "price": 20
  },
  {
    "option_id": 11,
    "work_id": 3,
    "name": "Стижка",
    "time": 900,
    "price": 4
  }
]
